3751,62232
3587,11060
3505,33182
3332,26477
3302,18353
3000,12345
2500,23456
2000,34567
1500,45678
1000,56789
750,67891
700,78912
650,89123
600,91234
500,99999
0,7233
0,525
0,54586
0,78158
0,96097
0,12154
0,10448
0,95075